Probing time: 117.934s
ML time: 2.95157s
Solving time: 6.41609s
Total runtime: 127.302s
Number of predictions: 15806
Number of data access calls: 37769
Probing time: 120.002s
ML time: 3.12721s
Solving time: 6.45257s
Total runtime: 129.582s
Number of predictions: 15806
Number of data access calls: 37813

Probing time: 122.33s
ML time: 36.7853s
Solving time: 12.8186s
Total runtime: 171.934s
Number of predictions: 10261
Number of data access calls: 37757
Probing time: 123.472s
ML time: 38.9229s
Solving time: 10.1243s
Total runtime: 172.52s
Number of predictions: 7812
Number of data access calls: 37693
Probing time: 130.094s
ML time: 40.7407s
Solving time: 14.2973s
Total runtime: 185.132s
Number of predictions: 10606
Number of data access calls: 37910
Probing time: 123.627s
ML time: 37.8648s
Solving time: 10.786s
Total runtime: 172.278s
Number of predictions: 8520
Number of data access calls: 37903
Probing time: 123.403s
ML time: 44.8274s
Solving time: 13.5487s
Total runtime: 181.78s
Number of predictions: 10939
Number of data access calls: 37993
Probing time: 130.912s
ML time: 41.7753s
Solving time: 9.86682s
Total runtime: 182.554s
Number of predictions: 6980
Number of data access calls: 38009
Probing time: 122.502s
ML time: 37.1177s
Solving time: 10.6068s
Total runtime: 170.226s
Number of predictions: 8116
Number of data access calls: 37707
Probing time: 1.03592s
ML time: 4.50101s
Solving time: 0.307724s
Total runtime: 5.84466s
Number of predictions: 560
Number of data access calls: 23060
Probing time: 1.08023s
ML time: 3.2448s
Solving time: 0.331509s
Total runtime: 4.65654s
Number of predictions: 552
Number of data access calls: 23053
Probing time: 1.03077s
ML time: 3.05108s
Solving time: 0.286191s
Total runtime: 4.36804s
Number of predictions: 556
Number of data access calls: 23060
Probing time: 1.03246s
ML time: 3.32141s
Solving time: 0.286935s
Total runtime: 4.6408s
Number of predictions: 536
Number of data access calls: 23094
Probing time: 1.06591s
ML time: 3.14607s
Solving time: 0.28109s
Total runtime: 4.49307s
Number of predictions: 526
Number of data access calls: 23036
Probing time: 1.04835s
ML time: 3.35555s
Solving time: 0.282276s
Total runtime: 4.68618s
Number of predictions: 540
Number of data access calls: 23027
Probing time: 2.16198s
ML time: 5.80168s
Solving time: 0.339542s
Total runtime: 8.30321s
Number of predictions: 540
Number of data access calls: 22987
Probing time: 3.12349s
ML time: 4.60696s
Solving time: 0.349075s
Total runtime: 8.07953s
Number of predictions: 540
Number of data access calls: 23041
Probing time: 4.49028s
ML time: 6.17226s
Solving time: 0.359871s
Total runtime: 11.0224s
Number of predictions: 538
Number of data access calls: 22904
Probing time: 1.13426s
ML time: 3.23929s
Solving time: 0.283453s
Total runtime: 4.65701s
Number of predictions: 434
Number of data access calls: 23024
Probing time: 300.012s
ML time: 692.008s
Solving time: 659.399s
Total runtime: 1651.42s
Number of predictions: 188211
Number of data access calls: 236852
Probing time: 0.067869s
ML time: 3.63878s
Solving time: 0.091395s
Total runtime: 3.79804s
Number of predictions: 58
Number of data access calls: 1032
Probing time: 0.064516s
ML time: 2.85813s
Solving time: 0.101276s
Total runtime: 3.02392s
Number of predictions: 45
Number of data access calls: 929
Probing time: 0.279679s
ML time: 2.89633s
Solving time: 0.088808s
Total runtime: 3.26481s
Number of predictions: 50
Number of data access calls: 884
Probing time: 0.043606s
ML time: 4.37695s
Solving time: 0.222708s
Total runtime: 4.64326s
Number of predictions: 52
Number of data access calls: 927
Probing time: 0.002474s
ML time: 3.09764s
Solving time: 0.240446s
Total runtime: 3.34056s
Number of predictions: 85
Number of data access calls: 1027
Probing time: 0.002662s
ML time: 3.18396s
Solving time: 0.213872s
Total runtime: 3.40049s
Number of predictions: 34
Number of data access calls: 962
